{
    "page": 4,
    "per_page": 5,
    "has_more": true,
    "total": 17,
    "data": [
        {
            "id": 16,
            "title": "A Medical Mystery of the Best Kind: Major Diseases Are In Decline",
            "description": "Something strange is going on in medicine. Major diseases, like colon cancer, dementia and heart disease, are waning in wealthy countries, and improved diagnosis and treatment cannot fully explain it...it looks as if people in the United States and some other wealthy countries are, unexpectedly, starting to beat back the diseases of aging. The leading killers are still the leading killers -- cancer, heart disease, stroke -- but they are occurring later in life, and people in general are living longer in good health.",
            "image_url": "http://media.fukung.net/imgs/communism.jpg"
        },
        {
            "id": 17,
            "title": "Has Physics Gotten Something Really Important Really Wrong?",
            "description": "Some researchers now see popular ideas like string theory and the multiverse as highly suspect. These physicists feel our study of the cosmos has been taken too far from what data can constrain with the extra \"hidden\" dimensions of string theory and the unobservable other universes of the multiverse... it all adds up to muddied waters and something some researchers see as a \"crisis in physics.\"",
            "image_url": "http://media.fukung.net/imgs/KittyKermit.jpg"
        }
    ]
}
